<svg width="24" height="24" viewBox="0 0 24 24" fill="none" xmlns="http://www.w3.org/2000/svg">
<g id="Frame">
<path id="Vector" d="M15.0583 10.0247L8.48346 16.5995L7.40332 15.5193L13.9773 8.94453H8.18325V7.41675H16.586V15.8195H15.0583V10.0247Z" fill="black"/>
</g>
</svg>
